id,name,firstname,job,phoneNumber
13,test,test,test,0123456789
15,test,test,edit123,0123456789
16,test,test,edit123,0123456789
18,test_edit,test_edit,edit123,0123456789
20,aze,test,edit123,0123456789
21,aze,zer,ert,0123456789
22,test,qsd,wxc,1231234560
25,test,qsd,aze,1234567890
26,test,wxc,aze,3216549870
27,test,qsd,aze,0202020202
29,aze,qsd,wxc,2326232623
